<?xml version="1.0" encoding="utf-8"?>
<!-- Generator: Adobe Illustrator 23.0.0, SVG Export Plug-In . SVG Version: 6.00 Build 0)  -->
<svg version="1.1" id="レイヤー_1" xmlns="http://www.w3.org/2000/svg" xmlns:xlink="http://www.w3.org/1999/xlink" x="0px"
	 y="0px" viewBox="0 0 1000 1000" style="enable-background:new 0 0 1000 1000;" xml:space="preserve">
<g id="surface1">
	<path d="M707.5,12.3c13.8-13.8,36.2-13.8,50,0c6.6,6.6,10.4,15.6,10.4,25c0,9.4-3.7,18.3-10.4,25L318.3,500.8l439.1,438.6
		c13.8,13.8,13.8,36.1,0,49.9c-13.8,13.8-36.2,13.8-50,0l-464-463.6c-13.8-13.8-13.8-36.1,0-49.9L707.5,12.3z"/>
</g>
</svg>
