<?xml version="1.0" encoding="UTF-8"?>
<svg xmlns="http://www.w3.org/2000/svg" xmlns:xlink="http://www.w3.org/1999/xlink" width="1000pt" height="1000pt" viewBox="0 0 1000 1000" version="1.1">
<g id="surface1">
<path style=" stroke:none;fill-rule:nonzero;fill:rgb(0%,0%,0%);fill-opacity:1;" d="M 313.179688 940.3125 C 306.976562 946.515625 299.222656 949.613281 290.699219 949.613281 C 282.171875 949.613281 274.417969 946.515625 268.21875 940.3125 C 255.816406 927.90625 255.816406 907.753906 268.21875 895.347656 L 663.5625 500 L 268.21875 104.652344 C 255.816406 92.246094 255.816406 72.09375 268.21875 59.6875 C 280.621094 47.285156 300.777344 47.285156 313.179688 59.6875 L 731.007812 477.519531 C 743.414062 489.921875 743.414062 510.078125 731.007812 522.480469 Z M 313.179688 940.3125 "/>
</g>
</svg>
