<?xml version="1.0" encoding="UTF-8"?>
<svg xmlns="http://www.w3.org/2000/svg" xmlns:xlink="http://www.w3.org/1999/xlink" width="1000pt" height="1000pt" viewBox="0 0 1000 1000" version="1.1">
<g id="surface1">
<path style=" stroke:none;fill-rule:nonzero;fill:rgb(0%,0%,0%);fill-opacity:1;" d="M 750.929688 0.210938 L 621.085938 0 C 475.210938 0 380.9375 96.71875 380.9375 246.414062 L 380.9375 360.03125 L 250.386719 360.03125 C 239.105469 360.03125 229.96875 369.175781 229.96875 380.460938 L 229.96875 545.074219 C 229.96875 556.351562 239.117188 565.488281 250.386719 565.488281 L 380.9375 565.488281 L 380.9375 980.863281 C 380.9375 992.144531 390.074219 1001.28125 401.351562 1001.28125 L 571.6875 1001.28125 C 582.96875 1001.28125 592.105469 992.132812 592.105469 980.863281 L 592.105469 565.488281 L 744.75 565.488281 C 756.03125 565.488281 765.164062 556.351562 765.164062 545.074219 L 765.230469 380.460938 C 765.230469 375.042969 763.070312 369.851562 759.25 366.019531 C 755.425781 362.1875 750.21875 360.03125 744.800781 360.03125 L 592.105469 360.03125 L 592.105469 263.71875 C 592.105469 217.425781 603.132812 193.925781 663.4375 193.925781 L 750.90625 193.898438 C 762.179688 193.898438 771.3125 184.75 771.3125 173.480469 L 771.3125 20.625 C 771.3125 9.367188 762.1875 0.230469 750.929688 0.210938 Z M 750.929688 0.210938 "/>
</g>
</svg>
