<?xml version="1.0" encoding="utf-8"?>
<!-- Generator: Adobe Illustrator 23.0.6, SVG Export Plug-In . SVG Version: 6.00 Build 0)  -->
<svg version="1.1" id="レイヤー_1" xmlns="http://www.w3.org/2000/svg" xmlns:xlink="http://www.w3.org/1999/xlink" x="0px"
	 y="0px" viewBox="0 0 1000 1000" style="enable-background:new 0 0 1000 1000;" xml:space="preserve">
<title>uE208-arrow-left</title>
<polygon points="316.1,500.1 765.9,50.3 724.9,9.3 275.1,459.1 234.3,499.9 234.1,500.1 724.7,990.7 765.7,949.7 "/>
</svg>
